{
	"id": "1415ac5a-d469-4bda-b615-bb02bb14112b",
	"name": "Local",
	"values": [
		{
			"key": "base",
			"value": "http://localhost:5001/v1/cart/",
			"enabled": true
		}
	],
	"_postman_variable_scope": "environment",
	"_postman_exported_at": "2021-12-19T20:58:21.457Z",
	"_postman_exported_using": "Postman/9.3.1"
}